%YAML 1.1
%TAG !u! tag:unity3d.com,2011:
--- !u!114 &11400000
MonoBehaviour:
  m_ObjectHideFlags: 0
  m_CorrespondingSourceObject: {fileID: 0}
  m_PrefabInstance: {fileID: 0}
  m_PrefabAsset: {fileID: 0}
  m_GameObject: {fileID: 0}
  m_Enabled: 1
  m_EditorHideFlags: 0
  m_Script: {fileID: 11500000, guid: c36de0ae2805a2e43b3352feff2cda38, type: 3}
  m_Name: ___3PLE ProjectInfo___
  m_EditorClassIdentifier: 
  icon: {fileID: 2800000, guid: 48b5640e8c5493e4c8c8167b4be8653f, type: 3}
  iconMaxWidth: 128
  title: 3PLE - 3rd-Person\nLevel Editor\nStarter Kit
  sections:
  - heading: Version 2022.4.2
    text: "Many <b>many</b> updates and improvements. You should now be able to block
      out levels.\n\n<b>Known Issues:</b>\n\u2022 Cannot interact with Enemies or
      Enemy Spawners\n\u2022\_Some Rocky animation issues"
    linkText: 
    url: 
  - heading: Engine Doc
    text: <i>This needs to be updated for 2022.4.2</i>
    linkText: 3PLE Engine Info Doc
    url: https://docs.google.com/document/d/1kXVnYxvScsi0uqvrFvVbecds1tyPvSWfgfQAZbg6oKY/edit?usp=sharing
  - heading: <b>To Export Your Level to a UnityPackage</b>
    text: "I've created a tool to export your personal level folder so you can easily
      turn it in to D2L. Its under the Tools menu at:\n    <b>3PLE > Export Student
      Folder to UnityPackage</b>"
    linkText: 
    url: 
  - heading: Naming Your Scene
    text: 'When naming your scene, please follow this formatting: <b>FirstnameLastname_Level
      Title</b> (e.g. JeremyBond_TestScene)'
    linkText: 
    url: 
  - heading: Telemetry
    text: The telemetry files are now stored in the Cloud, and you should be able
      to access them automatically. They are stored by your scene name, so be sure
      you don't change it.
    linkText: 
    url: 
  - heading: You MUST Import These Packages
    text: "From the Unity menubar, choose <b>Window > Package Manager</b>\n\u2022
      2D Sprite\n\u2022 Cinemachine\n\u2022 Input System\n\u2022 ProBuilder\n\u2022
      ProGrids (optional Preview package)\n\u2022 TextMeshPro\n\u2022 Universal RP
      (Render Pipeline)\n\n<i>(If you get the</i> \"Unable to perform online search\"
      <i>error, then you need to click the Account button in the top-right and make
      sure you log in to your Unity account)</i>"
    linkText: 
    url: 
  - heading: If Everything in ProBuilder is Pink!
    text: 'From the main menu, choose: <b>Edit > Render Pipeline > Universal Render
      Pipeline > Upgrade Project Materials to URPipeline Materials</b>'
    linkText: 
    url: 
  - heading: Unity Window Layout File
    text: "To use the Unity Window Layout that Jeremy prefers:\n\n1. Choose Layout
      > Load Layout from file\u2026 from the\n    button in the top-right of the
      Unity window.\n\n2. Open the <b>UnityWindowLayoutFile.wlt</b> file in the\n   
      Assets folder."
    linkText: 
    url: 
  showDefaultInspector: 0
